[
    {
        "id" : "1",
        "title" : "onvan1",
        "description" : "matn e khabar1",
        "image" : "ax/1.png",
        "sambols" : "nemad1"
    },
    {
        "id" : "122",
        "title" : "onvan2",
        "description" : "matn e khabar2",
        "image" : "ax/2.png",
        "sambols" : "nemad2"
    }
]